Serenity report generated 11-04-2021 22:13
6 test scenarios 

Passed:             6
Pending             0
Failed:             0
Failed with errors: 0
Compromised:        0
Pending:            0
Ignored:            0
Skipped:            0